EESchema Schematic File Version 4
EELAYER 30 0
EELAYER END
$Descr A4 11693 8268
encoding utf-8
Sheet 1 1
Title ""
Date "lun. 30 mars 2015"
Rev ""
Comp ""
Comment1 ""
Comment2 ""
Comment3 ""
Comment4 ""
$EndDescr
Text Label 8950 1450 1    60   ~ 0
Vin
Text Label 9350 1450 1    60   ~ 0
IOREF
Text Label 8900 2500 0    60   ~ 0
A0
Text Label 8900 2600 0    60   ~ 0
A1
Text Label 8900 2700 0    60   ~ 0
A2
Text Label 8900 2800 0    60   ~ 0
A3
Text Label 8900 2900 0    60   ~ 0
A4
Text Label 8900 3000 0    60   ~ 0
A5
Text Label 10550 3000 0    60   ~ 0
0(Rx)
Text Label 10550 2800 0    60   ~ 0
2
Text Label 10550 2900 0    60   ~ 0
1(Tx)
Text Label 10550 2700 0    60   ~ 0
3(**)
Text Label 10550 2600 0    60   ~ 0
4
Text Label 10550 2500 0    60   ~ 0
5(**)
Text Label 10550 2400 0    60   ~ 0
6(**)
Text Label 10550 2300 0    60   ~ 0
7
Text Label 10550 2100 0    60   ~ 0
8
Text Label 10550 2000 0    60   ~ 0
9(**)
Text Label 10550 1900 0    60   ~ 0
10(**/SS)
Text Label 10550 1800 0    60   ~ 0
11(**/MOSI)
Text Label 10550 1700 0    60   ~ 0
12(MISO)
Text Label 10550 1600 0    60   ~ 0
13(SCK)
Text Label 10550 1400 0    60   ~ 0
AREF
NoConn ~ 9400 1600
Text Label 10550 1300 0    60   ~ 0
A4(SDA)
Text Label 10550 1200 0    60   ~ 0
A5(SCL)
Text Notes 10850 1000 0    60   ~ 0
Holes
Text Notes 8550 750  0    60   ~ 0
Shield for Arduino that uses\nthe same pin disposition\nlike "Uno" board Rev 3.
$Comp
L Connector_Generic:Conn_01x08 P1
U 1 1 56D70129
P 9600 1900
F 0 "P1" H 9600 2350 50  0000 C CNN
F 1 "Power" V 9700 1900 50  0000 C CNN
F 2 "Socket_Arduino_Uno:Socket_Strip_Arduino_1x08" V 9750 1900 20  0000 C CNN
F 3 "" H 9600 1900 50  0000 C CNN
	1    9600 1900
	1    0    0    -1  
$EndComp
Text Label 8650 1800 0    60   ~ 0
Reset
$Comp
L power:+3.3V #PWR01
U 1 1 56D70538
P 9150 1450
F 0 "#PWR01" H 9150 1300 50  0001 C CNN
F 1 "+3.3V" V 9150 1700 50  0000 C CNN
F 2 "" H 9150 1450 50  0000 C CNN
F 3 "" H 9150 1450 50  0000 C CNN
	1    9150 1450
	1    0    0    -1  
$EndComp
$Comp
L power:+5V #PWR02
U 1 1 56D707BB
P 9050 1350
F 0 "#PWR02" H 9050 1200 50  0001 C CNN
F 1 "+5V" V 9050 1550 50  0000 C CNN
F 2 "" H 9050 1350 50  0000 C CNN
F 3 "" H 9050 1350 50  0000 C CNN
	1    9050 1350
	1    0    0    -1  
$EndComp
$Comp
L power:GND #PWR03
U 1 1 56D70CC2
P 9300 3150
F 0 "#PWR03" H 9300 2900 50  0001 C CNN
F 1 "GND" H 9300 3000 50  0000 C CNN
F 2 "" H 9300 3150 50  0000 C CNN
F 3 "" H 9300 3150 50  0000 C CNN
	1    9300 3150
	1    0    0    -1  
$EndComp
$Comp
L power:GND #PWR04
U 1 1 56D70CFF
P 10300 3150
F 0 "#PWR04" H 10300 2900 50  0001 C CNN
F 1 "GND" H 10300 3000 50  0000 C CNN
F 2 "" H 10300 3150 50  0000 C CNN
F 3 "" H 10300 3150 50  0000 C CNN
	1    10300 3150
	1    0    0    -1  
$EndComp
$Comp
L Connector_Generic:Conn_01x06 P2
U 1 1 56D70DD8
P 9600 2700
F 0 "P2" H 9600 2300 50  0000 C CNN
F 1 "Analog" V 9700 2700 50  0000 C CNN
F 2 "Socket_Arduino_Uno:Socket_Strip_Arduino_1x06" V 9750 2750 20  0000 C CNN
F 3 "" H 9600 2700 50  0000 C CNN
	1    9600 2700
	1    0    0    -1  
$EndComp
$Comp
L Connector_Generic:Conn_01x01 P5
U 1 1 56D71177
P 10800 650
F 0 "P5" V 10900 650 50  0000 C CNN
F 1 "CONN_01X01" V 10900 650 50  0001 C CNN
F 2 "Socket_Arduino_Uno:Arduino_1pin" H 10721 724 20  0000 C CNN
F 3 "" H 10800 650 50  0000 C CNN
	1    10800 650 
	0    -1   -1   0   
$EndComp
$Comp
L Connector_Generic:Conn_01x01 P6
U 1 1 56D71274
P 10900 650
F 0 "P6" V 11000 650 50  0000 C CNN
F 1 "CONN_01X01" V 11000 650 50  0001 C CNN
F 2 "Socket_Arduino_Uno:Arduino_1pin" H 10900 650 20  0001 C CNN
F 3 "" H 10900 650 50  0000 C CNN
	1    10900 650 
	0    -1   -1   0   
$EndComp
$Comp
L Connector_Generic:Conn_01x01 P7
U 1 1 56D712A8
P 11000 650
F 0 "P7" V 11100 650 50  0000 C CNN
F 1 "CONN_01X01" V 11100 650 50  0001 C CNN
F 2 "Socket_Arduino_Uno:Arduino_1pin" V 11000 650 20  0001 C CNN
F 3 "" H 11000 650 50  0000 C CNN
	1    11000 650 
	0    -1   -1   0   
$EndComp
$Comp
L Connector_Generic:Conn_01x01 P8
U 1 1 56D712DB
P 11100 650
F 0 "P8" V 11200 650 50  0000 C CNN
F 1 "CONN_01X01" V 11200 650 50  0001 C CNN
F 2 "Socket_Arduino_Uno:Arduino_1pin" H 11024 572 20  0000 C CNN
F 3 "" H 11100 650 50  0000 C CNN
	1    11100 650 
	0    -1   -1   0   
$EndComp
NoConn ~ 10800 850 
NoConn ~ 10900 850 
NoConn ~ 11000 850 
NoConn ~ 11100 850 
$Comp
L Connector_Generic:Conn_01x08 P4
U 1 1 56D7164F
P 10000 2600
F 0 "P4" H 10000 2100 50  0000 C CNN
F 1 "Digital" V 10100 2600 50  0000 C CNN
F 2 "Socket_Arduino_Uno:Socket_Strip_Arduino_1x08" V 10150 2550 20  0000 C CNN
F 3 "" H 10000 2600 50  0000 C CNN
	1    10000 2600
	-1   0    0    -1  
$EndComp
Wire Notes Line
	8525 825  9925 825 
Wire Notes Line
	9925 825  9925 475 
Wire Wire Line
	9350 1450 9350 1700
Wire Wire Line
	9350 1700 9400 1700
Wire Wire Line
	9400 1900 9150 1900
Wire Wire Line
	9400 2000 9050 2000
Wire Wire Line
	9400 2300 8950 2300
Wire Wire Line
	9400 2100 9300 2100
Wire Wire Line
	9400 2200 9300 2200
Connection ~ 9300 2200
Wire Wire Line
	8950 2300 8950 1450
Wire Wire Line
	9050 2000 9050 1350
Wire Wire Line
	9150 1900 9150 1450
Wire Wire Line
	9400 2500 8900 2500
Wire Wire Line
	9400 2600 8900 2600
Wire Wire Line
	9400 2700 8900 2700
Wire Wire Line
	9400 2800 8900 2800
Wire Wire Line
	9400 2900 8900 2900
Wire Wire Line
	9400 3000 8900 3000
$Comp
L Connector_Generic:Conn_01x10 P3
U 1 1 56D721E0
P 10000 1600
F 0 "P3" H 10000 2150 50  0000 C CNN
F 1 "Digital" V 10100 1600 50  0000 C CNN
F 2 "Socket_Arduino_Uno:Socket_Strip_Arduino_1x10" V 10150 1600 20  0000 C CNN
F 3 "" H 10000 1600 50  0000 C CNN
	1    10000 1600
	-1   0    0    -1  
$EndComp
Wire Wire Line
	10200 2100 10550 2100
Wire Wire Line
	10200 2000 10550 2000
Wire Wire Line
	10200 1900 10550 1900
Wire Wire Line
	10200 1800 10550 1800
Wire Wire Line
	10200 1700 10550 1700
Wire Wire Line
	10200 1600 10550 1600
Wire Wire Line
	10200 1400 10550 1400
Wire Wire Line
	10200 1300 10550 1300
Wire Wire Line
	10200 1200 10550 1200
Wire Wire Line
	10200 3000 10550 3000
Wire Wire Line
	10200 2900 10550 2900
Wire Wire Line
	10200 2800 10550 2800
Wire Wire Line
	10200 2700 10550 2700
Wire Wire Line
	10200 2600 10550 2600
Wire Wire Line
	10200 2500 10550 2500
Wire Wire Line
	10200 2400 10550 2400
Wire Wire Line
	10200 2300 10550 2300
Wire Wire Line
	10200 1500 10300 1500
Wire Wire Line
	10300 1500 10300 3150
Wire Wire Line
	9300 2100 9300 2200
Wire Wire Line
	9300 2200 9300 3150
Wire Notes Line
	8500 500  8500 3450
Wire Notes Line
	8500 3450 11200 3450
Wire Wire Line
	9400 1800 8650 1800
Text Notes 9700 1600 0    60   ~ 0
1
Wire Notes Line
	11200 1000 10700 1000
Wire Notes Line
	10700 1000 10700 500 
$Comp
L Device:R R1
U 1 1 5F08E4AE
P 2250 1850
F 0 "R1" H 2320 1896 50  0000 L CNN
F 1 "R" H 2320 1805 50  0000 L CNN
F 2 "Resistor_THT:R_Axial_DIN0204_L3.6mm_D1.6mm_P5.08mm_Horizontal" V 2180 1850 50  0001 C CNN
F 3 "~" H 2250 1850 50  0001 C CNN
	1    2250 1850
	1    0    0    -1  
$EndComp
$Comp
L Device:R_POT RV1
U 1 1 5F08EA0D
P 10150 4700
F 0 "RV1" H 10081 4746 50  0000 R CNN
F 1 "R_POT" H 10081 4655 50  0000 R CNN
F 2 "Potentiometer_THT:Potentiometer_Bourns_3266Y_Vertical" H 10150 4700 50  0001 C CNN
F 3 "~" H 10150 4700 50  0001 C CNN
	1    10150 4700
	-1   0    0    1   
$EndComp
$Comp
L Switch:SW_Push SW1
U 1 1 5F08F1C2
P 1900 2050
F 0 "SW1" H 1900 2335 50  0000 C CNN
F 1 "SW_Push" H 1900 2244 50  0000 C CNN
F 2 "Button_Switch_THT:SW_PUSH_6mm" H 1900 2250 50  0001 C CNN
F 3 "~" H 1900 2250 50  0001 C CNN
	1    1900 2050
	1    0    0    -1  
$EndComp
$Comp
L Display_Character:RC1602A U1
U 1 1 5F091DB5
P 9450 4900
F 0 "U1" H 9550 4250 50  0000 C CNN
F 1 "RC1602A" H 9650 4150 50  0000 C CNN
F 2 "Display:WC1602A" H 9550 4100 50  0001 C CNN
F 3 "http://www.raystar-optronics.com/down.php?ProID=18" H 9550 4800 50  0001 C CNN
	1    9450 4900
	1    0    0    -1  
$EndComp
$Comp
L power:GND #PWR0101
U 1 1 5F0936D7
P 9450 5750
F 0 "#PWR0101" H 9450 5500 50  0001 C CNN
F 1 "GND" H 9450 5600 50  0000 C CNN
F 2 "" H 9450 5750 50  0000 C CNN
F 3 "" H 9450 5750 50  0000 C CNN
	1    9450 5750
	1    0    0    -1  
$EndComp
Wire Wire Line
	9450 5750 9450 5600
$Comp
L power:+5V #PWR0102
U 1 1 5F096154
P 9450 4050
F 0 "#PWR0102" H 9450 3900 50  0001 C CNN
F 1 "+5V" V 9450 4250 50  0000 C CNN
F 2 "" H 9450 4050 50  0000 C CNN
F 3 "" H 9450 4050 50  0000 C CNN
	1    9450 4050
	1    0    0    -1  
$EndComp
$Comp
L power:GND #PWR0103
U 1 1 5F09723F
P 8900 4500
F 0 "#PWR0103" H 8900 4250 50  0001 C CNN
F 1 "GND" H 8900 4350 50  0000 C CNN
F 2 "" H 8900 4500 50  0000 C CNN
F 3 "" H 8900 4500 50  0000 C CNN
	1    8900 4500
	0    1    1    0   
$EndComp
Wire Wire Line
	10000 4700 9850 4700
Text Label 8900 5400 2    60   ~ 0
0(Rx)
Text Label 8900 5200 2    60   ~ 0
2
Text Label 8900 5300 2    60   ~ 0
1(Tx)
Text Label 8900 5100 2    60   ~ 0
3(**)
Text Label 8900 4600 3    60   ~ 0
4
Text Label 8900 4400 2    60   ~ 0
5(**)
Wire Wire Line
	9050 5400 8900 5400
Wire Wire Line
	8900 5300 9050 5300
Wire Wire Line
	9050 5200 8900 5200
Wire Wire Line
	9050 5100 8900 5100
Wire Wire Line
	9050 4600 8900 4600
Wire Wire Line
	9050 4500 8900 4500
Wire Wire Line
	9050 4400 8900 4400
Wire Wire Line
	9450 4050 9450 4200
$Comp
L power:GND #PWR0104
U 1 1 5F0A7D59
P 10150 4400
F 0 "#PWR0104" H 10150 4150 50  0001 C CNN
F 1 "GND" H 10150 4250 50  0000 C CNN
F 2 "" H 10150 4400 50  0000 C CNN
F 3 "" H 10150 4400 50  0000 C CNN
	1    10150 4400
	-1   0    0    1   
$EndComp
Wire Wire Line
	10150 4550 10150 4400
$Comp
L power:+5V #PWR0105
U 1 1 5F0AA1FA
P 10250 5000
F 0 "#PWR0105" H 10250 4850 50  0001 C CNN
F 1 "+5V" V 10250 5200 50  0000 C CNN
F 2 "" H 10250 5000 50  0000 C CNN
F 3 "" H 10250 5000 50  0000 C CNN
	1    10250 5000
	0    1    1    0   
$EndComp
Wire Wire Line
	10250 5000 10150 5000
Wire Wire Line
	10150 5000 10150 4850
$Comp
L power:GND #PWR0106
U 1 1 5F0B1885
P 10000 5100
F 0 "#PWR0106" H 10000 4850 50  0001 C CNN
F 1 "GND" H 10000 4950 50  0000 C CNN
F 2 "" H 10000 5100 50  0000 C CNN
F 3 "" H 10000 5100 50  0000 C CNN
	1    10000 5100
	0    -1   -1   0   
$EndComp
Wire Wire Line
	10000 5100 9850 5100
$Comp
L Device:R R13
U 1 1 5F0B42D1
P 10000 5350
F 0 "R13" H 10070 5396 50  0000 L CNN
F 1 "R" H 10070 5305 50  0000 L CNN
F 2 "Resistor_THT:R_Axial_DIN0204_L3.6mm_D1.6mm_P5.08mm_Horizontal" V 9930 5350 50  0001 C CNN
F 3 "~" H 10000 5350 50  0001 C CNN
	1    10000 5350
	1    0    0    -1  
$EndComp
Wire Wire Line
	9850 5200 10000 5200
$Comp
L power:+5V #PWR0107
U 1 1 5F0B6B42
P 10100 5500
F 0 "#PWR0107" H 10100 5350 50  0001 C CNN
F 1 "+5V" V 10100 5700 50  0000 C CNN
F 2 "" H 10100 5500 50  0000 C CNN
F 3 "" H 10100 5500 50  0000 C CNN
	1    10100 5500
	0    1    1    0   
$EndComp
Wire Wire Line
	10100 5500 10000 5500
Wire Wire Line
	2250 2000 2250 2050
Wire Wire Line
	2250 2050 2100 2050
$Comp
L power:+5V #PWR0108
U 1 1 5F0BCAE3
P 1550 1700
F 0 "#PWR0108" H 1550 1550 50  0001 C CNN
F 1 "+5V" V 1550 1900 50  0000 C CNN
F 2 "" H 1550 1700 50  0000 C CNN
F 3 "" H 1550 1700 50  0000 C CNN
	1    1550 1700
	1    0    0    -1  
$EndComp
Wire Wire Line
	1700 2050 1550 2050
$Comp
L power:GND #PWR0109
U 1 1 5F0BFCCB
P 2250 1600
F 0 "#PWR0109" H 2250 1350 50  0001 C CNN
F 1 "GND" H 2250 1450 50  0000 C CNN
F 2 "" H 2250 1600 50  0000 C CNN
F 3 "" H 2250 1600 50  0000 C CNN
	1    2250 1600
	-1   0    0    1   
$EndComp
Wire Wire Line
	2250 1600 2250 1700
Wire Wire Line
	1550 1700 1550 2050
Text Label 2550 2050 1    60   ~ 0
12(MISO)
Wire Wire Line
	2550 2050 2250 2050
Connection ~ 2250 2050
Text Label 2750 4100 0    60   ~ 0
7
$Comp
L Device:R R2
U 1 1 5F0D65AF
P 3550 1850
F 0 "R2" H 3620 1896 50  0000 L CNN
F 1 "R" H 3620 1805 50  0000 L CNN
F 2 "Resistor_THT:R_Axial_DIN0204_L3.6mm_D1.6mm_P5.08mm_Horizontal" V 3480 1850 50  0001 C CNN
F 3 "~" H 3550 1850 50  0001 C CNN
	1    3550 1850
	1    0    0    -1  
$EndComp
$Comp
L Switch:SW_Push SW2
U 1 1 5F0D65B5
P 3200 2050
F 0 "SW2" H 3200 2335 50  0000 C CNN
F 1 "SW_Push" H 3200 2244 50  0000 C CNN
F 2 "Button_Switch_THT:SW_PUSH_6mm" H 3200 2250 50  0001 C CNN
F 3 "~" H 3200 2250 50  0001 C CNN
	1    3200 2050
	1    0    0    -1  
$EndComp
Wire Wire Line
	3550 2000 3550 2050
Wire Wire Line
	3550 2050 3400 2050
$Comp
L power:+5V #PWR0110
U 1 1 5F0D65BD
P 2850 1700
F 0 "#PWR0110" H 2850 1550 50  0001 C CNN
F 1 "+5V" V 2850 1900 50  0000 C CNN
F 2 "" H 2850 1700 50  0000 C CNN
F 3 "" H 2850 1700 50  0000 C CNN
	1    2850 1700
	1    0    0    -1  
$EndComp
Wire Wire Line
	3000 2050 2850 2050
$Comp
L power:GND #PWR0111
U 1 1 5F0D65C4
P 3550 1600
F 0 "#PWR0111" H 3550 1350 50  0001 C CNN
F 1 "GND" H 3550 1450 50  0000 C CNN
F 2 "" H 3550 1600 50  0000 C CNN
F 3 "" H 3550 1600 50  0000 C CNN
	1    3550 1600
	-1   0    0    1   
$EndComp
Wire Wire Line
	3550 1600 3550 1700
Wire Wire Line
	2850 1700 2850 2050
$Comp
L Device:R R3
U 1 1 5F0DCDB3
P 2450 3900
F 0 "R3" H 2520 3946 50  0000 L CNN
F 1 "R" H 2520 3855 50  0000 L CNN
F 2 "Resistor_THT:R_Axial_DIN0204_L3.6mm_D1.6mm_P5.08mm_Horizontal" V 2380 3900 50  0001 C CNN
F 3 "~" H 2450 3900 50  0001 C CNN
	1    2450 3900
	1    0    0    -1  
$EndComp
$Comp
L Switch:SW_Push SW3
U 1 1 5F0DCDB9
P 2100 4100
F 0 "SW3" H 2100 4385 50  0000 C CNN
F 1 "SW_Push" H 2100 4294 50  0000 C CNN
F 2 "Button_Switch_THT:SW_PUSH_6mm" H 2100 4300 50  0001 C CNN
F 3 "~" H 2100 4300 50  0001 C CNN
	1    2100 4100
	1    0    0    -1  
$EndComp
Wire Wire Line
	2450 4050 2450 4100
Wire Wire Line
	2450 4100 2300 4100
$Comp
L power:+5V #PWR0112
U 1 1 5F0DCDC1
P 1750 3750
F 0 "#PWR0112" H 1750 3600 50  0001 C CNN
F 1 "+5V" V 1750 3950 50  0000 C CNN
F 2 "" H 1750 3750 50  0000 C CNN
F 3 "" H 1750 3750 50  0000 C CNN
	1    1750 3750
	1    0    0    -1  
$EndComp
Wire Wire Line
	1900 4100 1750 4100
$Comp
L power:GND #PWR0113
U 1 1 5F0DCDC8
P 2450 3650
F 0 "#PWR0113" H 2450 3400 50  0001 C CNN
F 1 "GND" H 2450 3500 50  0000 C CNN
F 2 "" H 2450 3650 50  0000 C CNN
F 3 "" H 2450 3650 50  0000 C CNN
	1    2450 3650
	-1   0    0    1   
$EndComp
Wire Wire Line
	2450 3650 2450 3750
Wire Wire Line
	1750 3750 1750 4100
Wire Wire Line
	2750 4100 2450 4100
Connection ~ 2450 4100
$Comp
L Device:R R4
U 1 1 5F0DCDD3
P 3750 3900
F 0 "R4" H 3820 3946 50  0000 L CNN
F 1 "R" H 3820 3855 50  0000 L CNN
F 2 "Resistor_THT:R_Axial_DIN0204_L3.6mm_D1.6mm_P5.08mm_Horizontal" V 3680 3900 50  0001 C CNN
F 3 "~" H 3750 3900 50  0001 C CNN
	1    3750 3900
	1    0    0    -1  
$EndComp
$Comp
L Switch:SW_Push SW4
U 1 1 5F0DCDD9
P 3400 4100
F 0 "SW4" H 3400 4385 50  0000 C CNN
F 1 "SW_Push" H 3400 4294 50  0000 C CNN
F 2 "Button_Switch_THT:SW_PUSH_6mm" H 3400 4300 50  0001 C CNN
F 3 "~" H 3400 4300 50  0001 C CNN
	1    3400 4100
	1    0    0    -1  
$EndComp
Wire Wire Line
	3750 4050 3750 4100
Wire Wire Line
	3750 4100 3600 4100
$Comp
L power:+5V #PWR0114
U 1 1 5F0DCDE1
P 3050 3750
F 0 "#PWR0114" H 3050 3600 50  0001 C CNN
F 1 "+5V" V 3050 3950 50  0000 C CNN
F 2 "" H 3050 3750 50  0000 C CNN
F 3 "" H 3050 3750 50  0000 C CNN
	1    3050 3750
	1    0    0    -1  
$EndComp
Wire Wire Line
	3200 4100 3050 4100
$Comp
L power:GND #PWR0115
U 1 1 5F0DCDE8
P 3750 3650
F 0 "#PWR0115" H 3750 3400 50  0001 C CNN
F 1 "GND" H 3750 3500 50  0000 C CNN
F 2 "" H 3750 3650 50  0000 C CNN
F 3 "" H 3750 3650 50  0000 C CNN
	1    3750 3650
	-1   0    0    1   
$EndComp
Wire Wire Line
	3750 3650 3750 3750
Wire Wire Line
	3050 3750 3050 4100
Wire Wire Line
	4050 4100 3750 4100
Connection ~ 3750 4100
$Comp
L power:+5V #PWR0116
U 1 1 5F0E527F
P 4350 3750
F 0 "#PWR0116" H 4350 3600 50  0001 C CNN
F 1 "+5V" V 4350 3950 50  0000 C CNN
F 2 "" H 4350 3750 50  0000 C CNN
F 3 "" H 4350 3750 50  0000 C CNN
	1    4350 3750
	1    0    0    -1  
$EndComp
Wire Wire Line
	4350 3750 4350 4100
$Comp
L Device:R R6
U 1 1 5F0E5291
P 6350 3900
F 0 "R6" H 6420 3946 50  0000 L CNN
F 1 "R" H 6420 3855 50  0000 L CNN
F 2 "Resistor_THT:R_Axial_DIN0204_L3.6mm_D1.6mm_P5.08mm_Horizontal" V 6280 3900 50  0001 C CNN
F 3 "~" H 6350 3900 50  0001 C CNN
	1    6350 3900
	1    0    0    -1  
$EndComp
Wire Wire Line
	6350 4050 6350 4100
Wire Wire Line
	6350 4100 6200 4100
$Comp
L power:GND #PWR0119
U 1 1 5F0E52A6
P 6350 3650
F 0 "#PWR0119" H 6350 3400 50  0001 C CNN
F 1 "GND" H 6350 3500 50  0000 C CNN
F 2 "" H 6350 3650 50  0000 C CNN
F 3 "" H 6350 3650 50  0000 C CNN
	1    6350 3650
	-1   0    0    1   
$EndComp
Wire Wire Line
	6350 3650 6350 3750
Wire Wire Line
	6650 4100 6350 4100
Connection ~ 6350 4100
$Comp
L Device:R R7
U 1 1 5F0F5928
P 7650 3900
F 0 "R7" H 7720 3946 50  0000 L CNN
F 1 "R" H 7720 3855 50  0000 L CNN
F 2 "Resistor_THT:R_Axial_DIN0204_L3.6mm_D1.6mm_P5.08mm_Horizontal" V 7580 3900 50  0001 C CNN
F 3 "~" H 7650 3900 50  0001 C CNN
	1    7650 3900
	1    0    0    -1  
$EndComp
$Comp
L Switch:SW_Push SW7
U 1 1 5F0F592E
P 7300 4100
F 0 "SW7" H 7300 4385 50  0000 C CNN
F 1 "SW_Push" H 7300 4294 50  0000 C CNN
F 2 "Button_Switch_THT:SW_PUSH_6mm" H 7300 4300 50  0001 C CNN
F 3 "~" H 7300 4300 50  0001 C CNN
	1    7300 4100
	1    0    0    -1  
$EndComp
Wire Wire Line
	7650 4050 7650 4100
Wire Wire Line
	7650 4100 7500 4100
$Comp
L power:+5V #PWR0120
U 1 1 5F0F5936
P 6950 3750
F 0 "#PWR0120" H 6950 3600 50  0001 C CNN
F 1 "+5V" V 6950 3950 50  0000 C CNN
F 2 "" H 6950 3750 50  0000 C CNN
F 3 "" H 6950 3750 50  0000 C CNN
	1    6950 3750
	1    0    0    -1  
$EndComp
Wire Wire Line
	7100 4100 6950 4100
$Comp
L power:GND #PWR0121
U 1 1 5F0F593D
P 7650 3650
F 0 "#PWR0121" H 7650 3400 50  0001 C CNN
F 1 "GND" H 7650 3500 50  0000 C CNN
F 2 "" H 7650 3650 50  0000 C CNN
F 3 "" H 7650 3650 50  0000 C CNN
	1    7650 3650
	-1   0    0    1   
$EndComp
Wire Wire Line
	7650 3650 7650 3750
Wire Wire Line
	6950 3750 6950 4100
Wire Wire Line
	7950 4100 7650 4100
Connection ~ 7650 4100
$Comp
L Device:R R8
U 1 1 5F1054C4
P 2450 5400
F 0 "R8" H 2520 5446 50  0000 L CNN
F 1 "R" H 2520 5355 50  0000 L CNN
F 2 "Resistor_THT:R_Axial_DIN0204_L3.6mm_D1.6mm_P5.08mm_Horizontal" V 2380 5400 50  0001 C CNN
F 3 "~" H 2450 5400 50  0001 C CNN
	1    2450 5400
	1    0    0    -1  
$EndComp
$Comp
L Switch:SW_Push SW8
U 1 1 5F1054CA
P 2100 5600
F 0 "SW8" H 2100 5885 50  0000 C CNN
F 1 "SW_Push" H 2100 5794 50  0000 C CNN
F 2 "Button_Switch_THT:SW_PUSH_6mm" H 2100 5800 50  0001 C CNN
F 3 "~" H 2100 5800 50  0001 C CNN
	1    2100 5600
	1    0    0    -1  
$EndComp
Wire Wire Line
	2450 5550 2450 5600
Wire Wire Line
	2450 5600 2300 5600
$Comp
L power:+5V #PWR0122
U 1 1 5F1054D2
P 1750 5250
F 0 "#PWR0122" H 1750 5100 50  0001 C CNN
F 1 "+5V" V 1750 5450 50  0000 C CNN
F 2 "" H 1750 5250 50  0000 C CNN
F 3 "" H 1750 5250 50  0000 C CNN
	1    1750 5250
	1    0    0    -1  
$EndComp
Wire Wire Line
	1900 5600 1750 5600
$Comp
L power:GND #PWR0123
U 1 1 5F1054D9
P 2450 5150
F 0 "#PWR0123" H 2450 4900 50  0001 C CNN
F 1 "GND" H 2450 5000 50  0000 C CNN
F 2 "" H 2450 5150 50  0000 C CNN
F 3 "" H 2450 5150 50  0000 C CNN
	1    2450 5150
	-1   0    0    1   
$EndComp
Wire Wire Line
	2450 5150 2450 5250
Wire Wire Line
	1750 5250 1750 5600
Wire Wire Line
	2750 5600 2450 5600
Connection ~ 2450 5600
$Comp
L Device:R R9
U 1 1 5F1054E4
P 3750 5400
F 0 "R9" H 3820 5446 50  0000 L CNN
F 1 "R" H 3820 5355 50  0000 L CNN
F 2 "Resistor_THT:R_Axial_DIN0204_L3.6mm_D1.6mm_P5.08mm_Horizontal" V 3680 5400 50  0001 C CNN
F 3 "~" H 3750 5400 50  0001 C CNN
	1    3750 5400
	1    0    0    -1  
$EndComp
$Comp
L Switch:SW_Push SW9
U 1 1 5F1054EA
P 3400 5600
F 0 "SW9" H 3400 5885 50  0000 C CNN
F 1 "SW_Push" H 3400 5794 50  0000 C CNN
F 2 "Button_Switch_THT:SW_PUSH_6mm" H 3400 5800 50  0001 C CNN
F 3 "~" H 3400 5800 50  0001 C CNN
	1    3400 5600
	1    0    0    -1  
$EndComp
Wire Wire Line
	3750 5550 3750 5600
Wire Wire Line
	3750 5600 3600 5600
$Comp
L power:+5V #PWR0124
U 1 1 5F1054F2
P 3050 5250
F 0 "#PWR0124" H 3050 5100 50  0001 C CNN
F 1 "+5V" V 3050 5450 50  0000 C CNN
F 2 "" H 3050 5250 50  0000 C CNN
F 3 "" H 3050 5250 50  0000 C CNN
	1    3050 5250
	1    0    0    -1  
$EndComp
Wire Wire Line
	3200 5600 3050 5600
$Comp
L power:GND #PWR0125
U 1 1 5F1054F9
P 3750 5150
F 0 "#PWR0125" H 3750 4900 50  0001 C CNN
F 1 "GND" H 3750 5000 50  0000 C CNN
F 2 "" H 3750 5150 50  0000 C CNN
F 3 "" H 3750 5150 50  0000 C CNN
	1    3750 5150
	-1   0    0    1   
$EndComp
Wire Wire Line
	3750 5150 3750 5250
Wire Wire Line
	3050 5250 3050 5600
Wire Wire Line
	4050 5600 3750 5600
Connection ~ 3750 5600
$Comp
L Device:R R10
U 1 1 5F105504
P 5050 5400
F 0 "R10" H 5120 5446 50  0000 L CNN
F 1 "R" H 5120 5355 50  0000 L CNN
F 2 "Resistor_THT:R_Axial_DIN0204_L3.6mm_D1.6mm_P5.08mm_Horizontal" V 4980 5400 50  0001 C CNN
F 3 "~" H 5050 5400 50  0001 C CNN
	1    5050 5400
	1    0    0    -1  
$EndComp
$Comp
L Switch:SW_Push SW10
U 1 1 5F10550A
P 4700 5600
F 0 "SW10" H 4700 5885 50  0000 C CNN
F 1 "SW_Push" H 4700 5794 50  0000 C CNN
F 2 "Button_Switch_THT:SW_PUSH_6mm" H 4700 5800 50  0001 C CNN
F 3 "~" H 4700 5800 50  0001 C CNN
	1    4700 5600
	1    0    0    -1  
$EndComp
Wire Wire Line
	5050 5550 5050 5600
Wire Wire Line
	5050 5600 4900 5600
$Comp
L power:+5V #PWR0126
U 1 1 5F105512
P 4350 5250
F 0 "#PWR0126" H 4350 5100 50  0001 C CNN
F 1 "+5V" V 4350 5450 50  0000 C CNN
F 2 "" H 4350 5250 50  0000 C CNN
F 3 "" H 4350 5250 50  0000 C CNN
	1    4350 5250
	1    0    0    -1  
$EndComp
Wire Wire Line
	4500 5600 4350 5600
$Comp
L power:GND #PWR0127
U 1 1 5F105519
P 5050 5150
F 0 "#PWR0127" H 5050 4900 50  0001 C CNN
F 1 "GND" H 5050 5000 50  0000 C CNN
F 2 "" H 5050 5150 50  0000 C CNN
F 3 "" H 5050 5150 50  0000 C CNN
	1    5050 5150
	-1   0    0    1   
$EndComp
Wire Wire Line
	5050 5150 5050 5250
Wire Wire Line
	4350 5250 4350 5600
Wire Wire Line
	5350 5600 5050 5600
Connection ~ 5050 5600
$Comp
L Device:R R11
U 1 1 5F105524
P 6350 5400
F 0 "R11" H 6420 5446 50  0000 L CNN
F 1 "R" H 6420 5355 50  0000 L CNN
F 2 "Resistor_THT:R_Axial_DIN0204_L3.6mm_D1.6mm_P5.08mm_Horizontal" V 6280 5400 50  0001 C CNN
F 3 "~" H 6350 5400 50  0001 C CNN
	1    6350 5400
	1    0    0    -1  
$EndComp
$Comp
L Switch:SW_Push SW11
U 1 1 5F10552A
P 6000 5600
F 0 "SW11" H 6000 5885 50  0000 C CNN
F 1 "SW_Push" H 6000 5794 50  0000 C CNN
F 2 "Button_Switch_THT:SW_PUSH_6mm" H 6000 5800 50  0001 C CNN
F 3 "~" H 6000 5800 50  0001 C CNN
	1    6000 5600
	1    0    0    -1  
$EndComp
Wire Wire Line
	6350 5550 6350 5600
Wire Wire Line
	6350 5600 6200 5600
$Comp
L power:+5V #PWR0128
U 1 1 5F105532
P 5650 5250
F 0 "#PWR0128" H 5650 5100 50  0001 C CNN
F 1 "+5V" V 5650 5450 50  0000 C CNN
F 2 "" H 5650 5250 50  0000 C CNN
F 3 "" H 5650 5250 50  0000 C CNN
	1    5650 5250
	1    0    0    -1  
$EndComp
Wire Wire Line
	5800 5600 5650 5600
$Comp
L power:GND #PWR0129
U 1 1 5F105539
P 6350 5150
F 0 "#PWR0129" H 6350 4900 50  0001 C CNN
F 1 "GND" H 6350 5000 50  0000 C CNN
F 2 "" H 6350 5150 50  0000 C CNN
F 3 "" H 6350 5150 50  0000 C CNN
	1    6350 5150
	-1   0    0    1   
$EndComp
Wire Wire Line
	6350 5150 6350 5250
Wire Wire Line
	5650 5250 5650 5600
$Comp
L Device:R R12
U 1 1 5F105544
P 7650 5400
F 0 "R12" H 7720 5446 50  0000 L CNN
F 1 "R" H 7720 5355 50  0000 L CNN
F 2 "Resistor_THT:R_Axial_DIN0204_L3.6mm_D1.6mm_P5.08mm_Horizontal" V 7580 5400 50  0001 C CNN
F 3 "~" H 7650 5400 50  0001 C CNN
	1    7650 5400
	1    0    0    -1  
$EndComp
$Comp
L Switch:SW_Push SW12
U 1 1 5F10554A
P 7300 5600
F 0 "SW12" H 7300 5885 50  0000 C CNN
F 1 "SW_Push" H 7300 5794 50  0000 C CNN
F 2 "Button_Switch_THT:SW_PUSH_6mm" H 7300 5800 50  0001 C CNN
F 3 "~" H 7300 5800 50  0001 C CNN
	1    7300 5600
	1    0    0    -1  
$EndComp
Wire Wire Line
	7650 5550 7650 5600
Wire Wire Line
	7650 5600 7500 5600
$Comp
L power:+5V #PWR0130
U 1 1 5F105552
P 6950 5250
F 0 "#PWR0130" H 6950 5100 50  0001 C CNN
F 1 "+5V" V 6950 5450 50  0000 C CNN
F 2 "" H 6950 5250 50  0000 C CNN
F 3 "" H 6950 5250 50  0000 C CNN
	1    6950 5250
	1    0    0    -1  
$EndComp
Wire Wire Line
	7100 5600 6950 5600
$Comp
L power:GND #PWR0131
U 1 1 5F105559
P 7650 5150
F 0 "#PWR0131" H 7650 4900 50  0001 C CNN
F 1 "GND" H 7650 5000 50  0000 C CNN
F 2 "" H 7650 5150 50  0000 C CNN
F 3 "" H 7650 5150 50  0000 C CNN
	1    7650 5150
	-1   0    0    1   
$EndComp
Wire Wire Line
	7650 5150 7650 5250
Wire Wire Line
	6950 5250 6950 5600
Connection ~ 3550 2050
Wire Wire Line
	3850 2050 3550 2050
Text Label 7950 4100 1    60   ~ 0
11(**/MOSI)
Text Label 6650 4100 1    60   ~ 0
10(**/SS)
Text Label 4050 4100 0    60   ~ 0
8
Text Label 2750 5600 0    60   ~ 0
A1
Text Label 4050 5600 0    60   ~ 0
A2
Text Label 5350 5600 0    60   ~ 0
A3
Text Label 6500 5600 0    60   ~ 0
A4
Wire Wire Line
	5650 3750 5650 4100
Wire Wire Line
	5800 4100 5650 4100
$Comp
L power:+5V #PWR0118
U 1 1 5F0E529F
P 5650 3750
F 0 "#PWR0118" H 5650 3600 50  0001 C CNN
F 1 "+5V" V 5650 3950 50  0000 C CNN
F 2 "" H 5650 3750 50  0000 C CNN
F 3 "" H 5650 3750 50  0000 C CNN
	1    5650 3750
	1    0    0    -1  
$EndComp
$Comp
L Switch:SW_Push SW6
U 1 1 5F0E5297
P 6000 4100
F 0 "SW6" H 6000 4385 50  0000 C CNN
F 1 "SW_Push" H 6000 4294 50  0000 C CNN
F 2 "Button_Switch_THT:SW_PUSH_6mm" H 6000 4300 50  0001 C CNN
F 3 "~" H 6000 4300 50  0001 C CNN
	1    6000 4100
	1    0    0    -1  
$EndComp
Connection ~ 5050 4100
Wire Wire Line
	5350 4100 5050 4100
Wire Wire Line
	4500 4100 4350 4100
Wire Wire Line
	5050 4100 4900 4100
$Comp
L Switch:SW_Push SW5
U 1 1 5F0E5277
P 4700 4100
F 0 "SW5" H 4700 4385 50  0000 C CNN
F 1 "SW_Push" H 4700 4294 50  0000 C CNN
F 2 "Button_Switch_THT:SW_PUSH_6mm" H 4700 4300 50  0001 C CNN
F 3 "~" H 4700 4300 50  0001 C CNN
	1    4700 4100
	1    0    0    -1  
$EndComp
Wire Wire Line
	5050 4050 5050 4100
$Comp
L Device:R R5
U 1 1 5F0E5271
P 5050 3900
F 0 "R5" H 5120 3946 50  0000 L CNN
F 1 "R" H 5120 3855 50  0000 L CNN
F 2 "Resistor_THT:R_Axial_DIN0204_L3.6mm_D1.6mm_P5.08mm_Horizontal" V 4980 3900 50  0001 C CNN
F 3 "~" H 5050 3900 50  0001 C CNN
	1    5050 3900
	1    0    0    -1  
$EndComp
$Comp
L power:GND #PWR0117
U 1 1 5F0E5286
P 5050 3650
F 0 "#PWR0117" H 5050 3400 50  0001 C CNN
F 1 "GND" H 5050 3500 50  0000 C CNN
F 2 "" H 5050 3650 50  0000 C CNN
F 3 "" H 5050 3650 50  0000 C CNN
	1    5050 3650
	-1   0    0    1   
$EndComp
Wire Wire Line
	5050 3650 5050 3750
Text Label 5350 4100 1    60   ~ 0
9(**)
Text Label 3850 2050 0    60   ~ 0
A0
Text Label 7800 5600 0    60   ~ 0
A5
Wire Wire Line
	6500 5600 6350 5600
Connection ~ 6350 5600
Wire Wire Line
	7800 5600 7650 5600
Connection ~ 7650 5600
NoConn ~ 9050 5000
NoConn ~ 9050 4900
NoConn ~ 9050 4800
NoConn ~ 9050 4700
$EndSCHEMATC
